UFO Sightings – Project Blog
…
Rows: 80332 Columns: 11
── Column specification ────────────────────────────────────────────────────────
Delimiter: ","
chr (8): date_time, city_area, state, country, ufo_shape, described_encounte...
dbl (3): encounter_length, latitude, longitude

ℹ Use `spec()` to retrieve the full column specification for this data.
ℹ Specify the column types or set `show_col_types = FALSE` to quiet this message.

ufo_modified

# A tibble: 80,332 × 11
   date_time        city_area           state country ufo_shape encounter_length
   <chr>            <chr>               <chr> <chr>   <chr>                <dbl>
 1 10/10/1949 20:30 san marcos          tx    us      cylinder              2700
 2 10/10/1949 21:00 lackland afb        tx    <NA>    light                 7200
 3 10/10/1955 17:00 chester (uk/englan… <NA>  gb      circle                  20
 4 10/10/1956 21:00 edna                tx    us      circle                  20
 5 10/10/1960 20:00 kaneohe             hi    us      light                  900
 6 10/10/1961 19:00 bristol             tn    us      sphere                 300
 7 10/10/1965 21:00 penarth (uk/wales)  <NA>  gb      circle                 180
 8 10/10/1965 23:45 norwalk             ct    us      disk                  1200
 9 10/10/1966 20:00 pell city           al    us      disk                   180
10 10/10/1966 21:00 live oak            fl    us      disk                   120
# ℹ 80,322 more rows
# ℹ 5 more variables: described_encounter_length <chr>, description <chr>,
#   date_documented <chr>, latitude <dbl>, longitude <dbl>
…
# A tibble: 1 × 12
  encounter_length_mean encounter_length_sd encounter_length_min
                  <dbl>               <dbl>                <dbl>
1                 9017.                  NA                   NA
# ℹ 9 more variables: encounter_length_max <dbl>, latitude_mean <dbl>,
#   latitude_sd <dbl>, latitude_min <dbl>, latitude_max <dbl>,
#   longitude_mean <dbl>, longitude_sd <dbl>, longitude_min <dbl>,
#   longitude_max <dbl>

ufo_modified <- ufo %>% tidyr::drop_na()
ufo_modified

# A tibble: 66,516 × 11
   date_time        city_area  state country ufo_shape encounter_length
   <chr>            <chr>      <chr> <chr>   <chr>                <dbl>
 1 10/10/1949 20:30 san marcos tx    us      cylinder              2700
 2 10/10/1956 21:00 edna       tx    us      circle                  20
 3 10/10/1960 20:00 kaneohe    hi    us      light                  900
 4 10/10/1961 19:00 bristol    tn    us      sphere                 300
 5 10/10/1965 23:45 norwalk    ct    us      disk                  1200
 6 10/10/1966 20:00 pell city  al    us      disk                   180
 7 10/10/1966 21:00 live oak   fl    us      disk                   120
 8 10/10/1968 13:00 hawthorne  ca    us      circle                 300
 9 10/10/1968 19:00 brevard    nc    us      fireball               180
10 10/10/1970 16:00 bellmore   ny    us      disk                  1800
# ℹ 66,506 more rows
# ℹ 5 more variables: described_encounter_length <chr>, description <chr>,
#   date_documented <chr>, latitude <dbl>, longitude <dbl>
…
